[
  {
    "Book_id": "cccaf609-3b88-4273-b3a5-e5202ca3e818",
    "Book_title": "title1",
    "Book_author": "author1",
    "Book_price": 400
  },
  {
    "Book_id": "c19f82a5-f811-4aba-807b-c726344c9cb4",
    "Book_title": "title2",
    "Book_author": "author1",
    "Book_price": 600
  },
  {
    "Book_id": "c1dd60b7-b9e4-45ce-9127-c39458363556",
    "Book_title": "title3",
    "Book_author": "author1",
    "Book_price": 100
  }
]